{
  "name": "javi-javalab",
  "version": "0.1.0",
  "author": "javi",
  "summary": null,
  "license": "Apache 2.0",
  "source": "",
  "project_page": null,
  "issues_url": null,
  "dependencies": [
    {"name":"puppetlabs-stdlib","version_requirement":">= 1.0.0"},
    {"name":"cyberious-pget","version_requirement":">= 1.1.0"},
    {"name":"camptocamp-archive","version_requirement":">= 0.8.1"}

  ]
}

